{
    "minVersion": "0.1",
    "tabs": [
        {
            "views": [
                {
                    "useBoldText": true,
                    "useBottomMargin": false,
                    "title": "MovieBoxPro",
                    "class": "DepictionSubheaderView"
                },
                {
                    "markdown": "Free Movies and TV Shows",
                    "useSpacing": true,
                    "class": "DepictionMarkdownView"
                },
                {
                    "spacing": 8,
                    "class": "DepictionSpacerView"
                },
                {
                    "itemSize": "{160, 275.41333333333336}",
                    "itemCornerRadius": 6,
                    "screenshots": [
                        {
                            "accessibilityText": "Screenshot0",
                            "url": "https://dylbinthedev.github.io/assets/SileoDepictions/Screenshots/1.png"
                        },
                        {
                            "accessibilityText": "Screenshot1",
                            "url": "https://dylbinthedev.github.io/assets/SileoDepictions/Screenshots/2.png"
                        },
                        {
                            "accessibilityText": "Screenshot2",
                            "url": "https://dylbinthedev.github.io/assets/SileoDepictions/Screenshots/3.png"
                        }
                    ],
                    "class": "DepictionScreenshotsView"
                },
                {
                    "useBoldText": true,
                    "useBottomMargin": false,
                    "markdown": "This is MovieBoxPro (Latest), which is the latest build of the application pulled straight from the developers.\r\n\r\nWatch your favourite Movies and TV Shows for free. This application is based on the original MovieBox application with many improvements and a new UI.\r\n\r\nYou can watch anything you want for free, but if you want higher quality you have to purchase the VIP package.",
                    "title": "markdown-description",
                    "class": "DepictionMarkdownView"
                },
                {
                    "class": "DepictionSeparatorView"
                },
                {
                    "text": "8.2",
                    "title": "Version",
                    "class": "DepictionTableTextView"
                },
                {
                    "text": "12-01-2020",
                    "title": "Released",
                    "class": "DepictionTableTextView"
                },
                {
                    "text": "Free",
                    "title": "Price",
                    "class": "DepictionTableTextView"
                },
                {
                    "spacing": 8,
                    "class": "DepictionSpacerView"
                },
                {
                    "text": "11.0 - 14.4.1",
                    "title": "Supported iOS",
                    "class": "DepictionTableTextView"
                },
                {
                    "spacing": 8,
                    "class": "DepictionSpacerView"
                }
            ],
            "tabname": "Details",
            "class": "DepictionStackView"
        }
    ],
    "headerImage": "https://dylbinthedev.github.io/assets/SileoDepictions/Screenshots/Moviebox.png",
    "class": "DepictionTabView",
    "tintColor": "#2c2c30"
}